<?xml version="1.0" encoding="UTF-8" standalone="no"?>
<svg
   xmlns:dc="http://purl.org/dc/elements/1.1/"
   xmlns:cc="http://creativecommons.org/ns#"
   xmlns:rdf="http://www.w3.org/1999/02/22-rdf-syntax-ns#"
   xmlns:svg="http://www.w3.org/2000/svg"
   xmlns="http://www.w3.org/2000/svg"
   viewBox="-75 -70 150 150"

   version="1.1"
   id="bangladesh">
   <metadata>
    <rdf:RDF>
      <cc:Work
         rdf:about="https://cc-buttons.hashbase.io">
        <dc:format>image/svg+xml</dc:format>
        <dc:type
           rdf:resource="http://purl.org/dc/dcmitype/StillImage" />
        <dc:title />
        <cc:license
           rdf:resource="http://creativecommons.org/publicdomain/zero/1.0/" />
        <dc:creator>
          <cc:Agent>
            <dc:title>Sam Muirhead</dc:title>
          </cc:Agent>
        </dc:creator>
      </cc:Work>
      <cc:License
         rdf:about="http://creativecommons.org/publicdomain/zero/1.0/">
        <cc:permits
           rdf:resource="http://creativecommons.org/ns#Reproduction" />
        <cc:permits
           rdf:resource="http://creativecommons.org/ns#Distribution" />
        <cc:permits
           rdf:resource="http://creativecommons.org/ns#DerivativeWorks" />
      </cc:License>
    </rdf:RDF>
  </metadata>
  <path id="heart-outline" fill="#000"
     d="m 0,-32.29 c -13.97,-10.96 -35.84,-8.1 -45.89,8.36 -3.35,5.46 -4.61,11.82 -4.32,18.14 0.5,10.94 5.25,20.51 12.18,28.78 9.34,11.11 22.86,19.91 37.74,26.41 0,0 0.19,0.1 0.3,0.1 0.1,0 0.24,-0.1 0.29,-0.1 14.8,-6.5 28.4,-15.3 37.7,-26.41 7,-8.25 11.7,-17.84 12.2,-28.78 0.4,-6.32 -1,-12.68 -4.3,-18.14 -10.1,-16.47 -31.93,-19.32 -45.89,-8.36"
      />
  <g id="clip-group" clip-path="url(#clip-heart)">
  <rect x="-43" y="-32" width="86" height="74" fill="#fff"/>
    <rect width="86" height="74" x="-43" y="-32" fill="#00926b"/>
    <circle
       r="27"
       cy="0"
       cx="-10"
       id="circle"
       fill="#f65063"
       />
  </g>
  <clipPath id="clip-heart">
    <path
       d="m 0,-22.49 c 6.4,-6.91 13.86,-10.06 22.52,-8.84 8.96,1.32 16.36,7.61 19.16,16.23 2.1,6.62 1.2,14.03 -1.5,20.79 -4.4,10.5 -17.13,25.41 -40.3,35.91 -23.17,-10.5 -35.95,-25.41 -40.27,-35.91 -2.79,-6.76 -3.65,-14.17 -1.58,-20.79 2.78,-8.64 10.24,-14.94 19.22,-16.23 8.65,-1.22 16.12,1.93 22.5,8.84 l 0.13,0.14 0.12,-0.14"
       id="heart" />
  </clipPath>
  <path
     id="cc"
     d="m 29.4,7.71 -6.39,-3.16 c -2.2,3.23 -3.82,5.4 -8.47,4.13 -3.64,-1 -4.71,-4.99 -4.85,-8.34 -0.2,-4.58 1.4,-9.87 6.87,-9.58 3.5,0.18 4.99,2.24 5.78,4.09 l 6.96,-3.55 c -3.4,-6.54 -11.45,-8.75 -18.24,-6.94 -7.22,1.94 -10.89,8.59 -10.75,15.76 0.13,7.33 3.64,13.66 11.2,15.31 3.69,0.8 7.7,0.62 11.1,-1.09 2.69,-1.32 5.59,-3.88 6.79,-6.64 m -30,0 -6.36,-3.15 c -2.21,3.23 -3.81,5.4 -8.46,4.13 -3.64,-1 -4.72,-4.99 -4.87,-8.34 -0.18,-4.58 1.42,-9.87 6.9,-9.58 3.49,0.18 4.97,2.24 5.77,4.09 l 6.94,-3.55 c -3.42,-6.54 -11.44,-8.75 -18.22,-6.94 -7.24,1.94 -10.9,8.59 -10.77,15.76 0.13,7.33 3.65,13.66 11.2,15.31 3.7,0.8 7.71,0.62 11.13,-1.09 2.64,-1.32 5.57,-3.88 6.74,-6.64" />
</svg>
